Hansen’s Data Dive - Attempting to predict my 2024 NCAA bracket using code and AI
…
log_mod <- 
  logistic_reg() |> 
  set_engine("glm") |>
  set_mode("classification")

log_recipe <- 
  recipe(team_result ~ ., data = log_train) |> 
  update_role(game_id, game_date, team_short_display_name, opponent_team_short_display_name, season, new_role = "ID") |>
  step_normalize(all_predictors())

summary(log_recipe)

# A tibble: 24 × 4
   variable                                   type      role      source  
   <chr>                                      <list>    <chr>     <chr>   
 1 game_id                                    <chr [2]> ID        original
 2 game_date                                  <chr [1]> ID        original
 3 team_short_display_name                    <chr [3]> ID        original
 4 opponent_team_short_display_name           <chr [3]> ID        original
 5 season                                     <chr [2]> ID        original
 6 team_season_offensive_efficiency           <chr [2]> predictor original
 7 team_season_defensive_efficiency           <chr [2]> predictor original
 8 opponent_season_offensive_efficiency       <chr [2]> predictor original
 9 opponent_season_defensive_efficiency       <chr [2]> predictor original
10 opponent_rolling_mean_offensive_efficiency <chr [2]> predictor original
# ℹ 14 more rows
…
